…
``` r
cpue_data <- landings_data %>% 
    mutate(Weight_kg = Weight_g / 1000) %>%
    group_by(Year,Trip_ID) %>% 
    summarize(Trip_CPUE = sum(Weight_kg) /           mean(Effort_Hours)) %>% 
    group_by(Year) %>% 
    summarize(Median_CPUE_kg_hour =                  median(Trip_CPUE), Mean_CPUE_kg_hour =           mean(Trip_CPUE), Trip_CPUE = Trip_CPUE) 
```

``` r
cpue_data
```

    ## # A tibble: 1,880 x 4
    ## # Groups:   Year [9]
    ##     Year Median_CPUE_kg_hour Mean_CPUE_kg_hour Trip_CPUE
    ##    <dbl>               <dbl>             <dbl>     <dbl>
    ##  1  2003               0.318             0.493    1.25  
    ##  2  2003               0.318             0.493    0.315 
    ##  3  2003               0.318             0.493    0.186 
    ##  4  2003               0.318             0.493    0.251 
    ##  5  2003               0.318             0.493    0.0565
    ##  6  2003               0.318             0.493    0.0837
    ##  7  2003               0.318             0.493    0.0455
    ##  8  2003               0.318             0.493    0.318 
    ##  9  2003               0.318             0.493    0.177 
    ## 10  2003               0.318             0.493    0.100 
    ## # ... with 1,870 more rows
…
